jta1 ; m1 ; t1 ;         0.00
jta2 ; m1 ; t2 ;         0.00
jta3 ; m1 ; t3 ;         0.00
jta4 ; m1 ; t4 ;         0.00
jta5 ; m2 ; t1 ;         0.00
jta6 ; m2 ; t2 ;         0.00
jta7 ; m2 ; t3 ;         0.00
jta8 ; m2 ; t4 ;         0.00
